<?xml version="1.0" encoding="utf-8"?>
<!-- Generator: Adobe Illustrator 19.2.0, SVG Export Plug-In . SVG Version: 6.00 Build 0)  -->
<svg version="1.1" id="Lag_1" xmlns="http://www.w3.org/2000/svg" xmlns:xlink="http://www.w3.org/1999/xlink" x="0px" y="0px"
	 viewBox="0 0 460 483" style="enable-background:new 0 0 460 483;" xml:space="preserve">
<style type="text/css">
	.st0{fill:#FAFAFA;}
</style>
<g id="freddie-logo-BW">
</g>
<g>
	<circle class="st0" cx="374" cy="397.5" r="75.8"/>
	<path class="st0" d="M358.7,25.5C313.2-7.8,249.3,2,215.9,47.5C200.1,69,194,94.7,196.8,119.3l0,0c0,0,12.6,87.7-21.6,134.4
		c-29.5,40.2-92.3,64.8-109.2,70.9c-15.9,4.3-30.6,13.9-41.1,28.2C0.1,386.5,7.4,433.9,41.2,458.6c33.7,24.7,81.2,17.4,105.9-16.3
		c10.5-14.4,15.2-31.2,14.6-47.7c0.7-17.9,5.3-85.2,34.7-125.4c34.2-46.7,121.6-61,121.6-61l0,0c24.3-4.8,46.9-18.3,62.6-39.8
		C414,122.8,404.2,58.9,358.7,25.5z"/>
</g>
</svg>
